[
	"node_modules/bootstrap/js/dist/index.js",
	"node_modules/bootstrap/js/dist/util.js",
	"node_modules/bootstrap/js/dist/dropdown.js",
	"node_modules/bootstrap/js/dist/collapse.js",
	"node_modules/bootstrap/js/dist/tooltip.js",
	"node_modules/@fancyapps/fancybox/src/js/core.js",
	"node_modules/@fancyapps/fancybox/src/js/guestures.js",
	"node_modules/owl.carousel/dist/owl.carousel.js",
	"node_modules/jquery-viewport-checker/src/jquery.viewportchecker.js",
	"src/js/scripts.js"
]