<?xml version="1.0" standalone="no"?>
<!DOCTYPE svg PUBLIC "-//W3C//DTD SVG 20010904//EN"
 "http://www.w3.org/TR/2001/REC-SVG-20010904/DTD/svg10.dtd">
<svg version="1.0" xmlns="http://www.w3.org/2000/svg"
 width="1714.000000pt" height="1714.000000pt" viewBox="0 0 1714.000000 1714.000000"
 preserveAspectRatio="xMidYMid meet">
<metadata>
Created by potrace 1.11, written by Peter Selinger 2001-2013
</metadata>
<g transform="translate(0.000000,1714.000000) scale(0.100000,-0.100000)"
fill="#000000" stroke="none">
<path d="M967 11124 c-2 -2 -12 -5 -23 -7 -10 -2 -32 -9 -47 -15 -16 -7 -30
-12 -33 -12 -15 0 -115 -73 -153 -111 -77 -77 -139 -192 -159 -294 -8 -42 -8
-223 0 -265 26 -136 98 -251 225 -360 28 -23 102 -59 153 -74 298 -84 590 123
647 459 9 50 8 167 -1 220 -36 219 -201 405 -400 454 -43 10 -200 14 -209 5z"/>
<path d="M3945 10782 c-40 -2 -52 -7 -60 -25 -26 -54 -71 -132 -77 -135 -5 -2
-8 -8 -8 -14 0 -5 -25 -53 -55 -105 -30 -53 -55 -100 -55 -104 0 -5 -4 -9 -10
-9 -5 0 -10 -5 -10 -10 0 -6 -19 -37 -42 -68 -121 -166 -294 -317 -426 -372
-12 -5 -41 -18 -65 -28 -136 -61 -437 -161 -536 -179 -14 -2 -28 -6 -32 -8 -7
-5 -76 -17 -96 -18 -16 0 -14 7 -18 -99 -3 -63 0 -88 8 -89 7 -1 116 -3 242
-4 300 -3 278 -1 266 -22 -5 -10 -9 -21 -10 -25 -1 -5 -1 -9 -2 -10 -1 -3 -4
-17 -12 -58 -3 -14 -18 -72 -32 -130 -15 -58 -28 -112 -30 -120 -2 -8 -13 -53
-25 -100 -12 -47 -23 -92 -25 -100 -2 -8 -11 -44 -20 -80 -9 -36 -18 -72 -20
-80 -2 -8 -10 -42 -19 -75 -9 -33 -18 -69 -20 -80 -2 -11 -45 -184 -95 -385
-51 -201 -94 -372 -96 -381 -12 -53 -57 -239 -65 -269 -5 -19 -19 -73 -30
-120 -12 -47 -25 -98 -30 -115 -11 -37 -58 -237 -65 -276 -3 -15 -9 -38 -14
-51 -5 -13 -9 -26 -9 -31 -1 -6 -12 -58 -27 -127 0 -3 -4 -27 -9 -53 -4 -27
-10 -59 -12 -70 -3 -12 -7 -71 -9 -132 -5 -182 38 -311 145 -428 67 -73 170
-131 260 -147 123 -22 284 1 417 61 61 27 160 84 173 99 3 3 21 17 40 30 88
61 245 236 351 390 24 36 46 67 49 70 3 3 34 50 69 105 35 55 74 116 86 135
13 19 48 76 78 125 l54 90 -29 20 c-16 11 -59 41 -95 67 -37 26 -70 44 -74 40
-4 -4 -17 -24 -28 -44 -52 -93 -66 -117 -119 -196 -58 -89 -140 -200 -179
-242 -13 -14 -23 -28 -23 -32 0 -5 -6 -8 -13 -8 -7 0 -18 -9 -25 -20 -13 -21
-92 -76 -104 -72 -5 1 -8 -2 -8 -6 0 -4 -15 -9 -32 -10 -49 -3 -87 32 -89 83
-1 39 7 130 15 170 2 11 11 58 20 105 23 120 22 119 40 191 9 35 18 73 21 84
2 11 9 38 15 60 18 70 201 809 205 830 3 11 14 56 26 100 11 44 23 94 25 110
3 17 7 37 10 45 5 12 97 378 120 473 2 9 6 25 8 35 2 9 16 64 30 122 15 58 45
182 68 275 22 94 42 172 45 175 2 2 250 4 551 5 l546 0 -1 90 c-1 50 -2 99 -2
111 -1 21 -2 21 -428 23 -555 2 -559 2 -555 21 2 8 5 22 7 30 22 106 58 273
65 300 5 19 11 46 14 60 2 14 9 45 15 70 5 25 12 59 15 75 3 17 10 45 15 63 5
18 10 35 10 37 0 3 2 18 5 33 4 15 8 36 10 47 3 11 17 74 31 140 15 66 29 132
31 146 l5 26 -93 -1 c-51 -1 -115 -2 -143 -4z"/>
<path d="M6257 10414 c-1 -1 -31 -5 -67 -8 -36 -4 -94 -14 -130 -22 -36 -9
-69 -17 -75 -18 -16 -3 -128 -47 -145 -56 -8 -5 -33 -19 -55 -30 -160 -86
-309 -259 -420 -485 -47 -95 -100 -246 -110 -312 -3 -21 -8 -50 -10 -63 -28
-130 -21 -356 14 -516 28 -131 101 -302 154 -365 9 -10 17 -23 17 -28 0 -5 48
-58 108 -118 90 -93 133 -132 207 -191 45 -36 187 -132 195 -132 6 0 10 -4 10
-10 0 -5 7 -10 15 -10 8 0 15 -4 15 -10 0 -5 4 -10 9 -10 5 0 45 -22 88 -48
43 -27 107 -65 143 -84 107 -58 475 -270 480 -277 3 -3 17 -12 33 -20 15 -8
27 -18 27 -23 0 -4 6 -8 13 -8 13 0 129 -89 170 -131 140 -142 196 -395 138
-620 -19 -76 -80 -209 -107 -236 -8 -8 -14 -18 -14 -23 0 -4 -25 -33 -55 -63
-52 -54 -164 -119 -225 -131 -139 -28 -170 -32 -170 -25 0 5 -10 5 -22 0 -37
-13 -170 -2 -252 20 -22 6 -45 12 -51 14 -49 11 -153 63 -228 112 -65 43 -178
147 -241 222 -35 42 -113 166 -150 241 -29 58 -109 259 -107 268 1 1 -5 18
-13 37 -9 20 -15 36 -15 38 1 1 -4 22 -11 47 -18 66 -18 67 -39 165 -29 131
-21 122 -107 121 -67 -1 -74 -3 -75 -21 -4 -147 0 -1465 5 -1474 4 -6 36 -11
80 -11 l73 0 13 43 c42 142 95 179 221 152 35 -7 230 -79 261 -95 17 -9 221
-63 283 -75 140 -26 463 -26 595 0 31 6 117 24 150 31 66 14 116 33 234 91
106 51 116 57 116 65 0 5 5 8 10 8 6 0 18 8 28 18 11 9 37 32 60 50 23 19 69
67 102 109 222 276 334 574 332 888 0 66 -11 202 -17 225 -3 8 -7 33 -11 55
-3 22 -10 48 -15 58 -5 9 -7 17 -5 17 14 0 -66 193 -115 280 -23 40 -71 115
-78 120 -4 3 -17 19 -29 35 -44 58 -147 156 -221 213 -42 31 -77 60 -79 65 -2
4 -8 7 -12 7 -5 0 -28 13 -52 29 -24 15 -64 40 -90 55 -273 151 -603 338 -608
345 -3 3 -25 17 -50 30 -59 31 -230 143 -300 195 -131 99 -196 193 -228 332
-21 91 -22 262 -2 334 7 25 12 46 11 48 -1 1 14 33 34 71 30 61 124 171 176
206 93 63 181 87 327 90 228 4 389 -57 561 -211 58 -53 171 -186 171 -202 0
-6 4 -12 9 -14 21 -7 127 -198 191 -342 31 -70 100 -277 100 -301 1 -40 15
-49 89 -50 42 -1 72 3 74 9 3 10 2 1293 -2 1306 0 3 -36 5 -78 5 l-77 0 -19
-50 c-10 -28 -21 -59 -24 -69 -11 -35 -44 -64 -89 -76 -54 -15 -59 -14 -313
76 -130 46 -251 82 -298 89 -15 2 -39 6 -52 9 -65 14 -372 30 -384 20z"/>
<path d="M8470 10310 l-65 -5 1 -60 c1 -33 2 -67 3 -76 1 -13 15 -18 64 -22
146 -12 278 -59 330 -117 38 -42 67 -137 73 -238 3 -48 7 -93 9 -99 3 -7 1
-13 -3 -13 -4 0 -6 -66 -5 -147 2 -82 3 -200 2 -263 -1 -155 1 -212 7 -222 3
-4 2 -8 -3 -8 -4 0 -7 -30 -6 -67 2 -38 2 -120 2 -183 -1 -156 1 -212 7 -222
3 -4 2 -8 -3 -8 -4 0 -7 -30 -6 -67 2 -38 2 -120 2 -183 -1 -156 1 -212 7
-222 3 -4 2 -8 -3 -8 -4 0 -7 -30 -6 -67 2 -38 2 -120 2 -183 -1 -156 1 -212
7 -222 3 -4 2 -8 -3 -8 -4 0 -7 -30 -6 -67 2 -38 2 -120 2 -183 -1 -156 1
-212 7 -222 3 -4 2 -8 -3 -8 -4 0 -7 -82 -7 -183 2 -234 -18 -345 -76 -428
-62 -85 -196 -134 -381 -138 l-35 -1 0 -80 -1 -80 641 2 641 3 2 78 c1 77 1
77 -25 78 -193 10 -346 59 -409 132 -25 30 -75 117 -67 117 4 0 2 6 -4 13 -9
11 -20 58 -38 162 -8 45 -14 2869 -7 2899 8 29 19 10 68 -119 25 -66 50 -129
55 -140 4 -11 18 -47 30 -80 12 -33 28 -73 35 -90 7 -16 29 -75 50 -130 20
-55 41 -109 46 -120 10 -24 69 -176 115 -300 19 -49 39 -99 44 -110 5 -11 23
-58 40 -105 17 -47 35 -94 40 -105 5 -11 39 -99 75 -195 37 -96 82 -213 100
-260 19 -47 57 -146 85 -220 28 -74 55 -145 60 -157 21 -48 29 -70 46 -118 9
-27 28 -74 41 -103 12 -29 23 -56 23 -60 0 -4 18 -52 39 -107 22 -55 51 -130
65 -167 14 -38 37 -96 50 -130 14 -35 48 -124 76 -198 28 -74 55 -144 60 -155
5 -11 32 -81 61 -155 28 -74 55 -140 59 -145 5 -6 41 -10 80 -10 l72 0 24 65
c13 36 28 74 33 85 12 28 113 298 115 310 2 6 9 26 18 45 8 19 29 77 47 128
18 51 39 105 47 120 8 15 14 31 14 37 0 5 10 34 21 65 12 30 28 73 37 95 8 22
20 54 27 70 7 17 21 55 31 85 11 30 24 58 29 62 6 4 7 8 2 8 -4 0 0 17 9 38 9
20 26 67 39 104 13 36 30 81 38 100 8 18 25 62 38 98 12 36 27 76 32 90 6 14
11 30 13 35 1 6 8 24 15 40 6 17 13 35 15 40 3 12 76 207 108 290 41 105 82
213 171 455 48 129 93 249 101 267 8 17 14 34 14 37 0 4 24 71 54 149 76 198
173 457 207 552 33 89 39 98 60 90 13 -5 15 -202 13 -1533 0 -840 -4 -1545 -8
-1567 -23 -131 -63 -192 -158 -239 -37 -19 -93 -38 -105 -37 -2 0 -17 -4 -34
-9 -17 -5 -63 -12 -102 -15 -40 -4 -74 -9 -76 -11 -10 -10 -7 -144 4 -147 5
-2 413 -3 905 -3 l894 1 1 78 c1 48 -3 77 -9 78 -151 12 -259 40 -324 84 -44
30 -88 94 -103 149 -36 125 -36 168 -34 1686 1 822 5 1511 8 1530 13 71 17 84
32 131 36 106 143 167 340 194 22 4 49 8 60 10 11 2 22 4 25 4 3 1 5 35 5 76
1 61 -2 75 -15 76 -17 0 -1341 0 -1352 -1 -8 0 -37 -62 -43 -90 -2 -8 -4 -16
-5 -17 -2 -2 -3 -6 -4 -10 -2 -5 -7 -19 -14 -33 -22 -51 -75 -195 -75 -207 0
-7 -4 -13 -9 -13 -4 0 -8 -5 -8 -12 0 -12 -235 -639 -400 -1068 -29 -74 -59
-155 -67 -180 -8 -25 -21 -58 -28 -75 -7 -16 -43 -111 -80 -210 -37 -99 -72
-191 -78 -205 -5 -14 -11 -30 -12 -35 -2 -6 -21 -57 -43 -115 -40 -103 -132
-348 -175 -463 -22 -59 -43 -82 -64 -69 -6 4 -27 50 -47 102 -20 52 -41 103
-46 112 -6 10 -10 22 -10 27 0 5 -5 22 -12 38 -6 15 -12 30 -13 33 -1 3 -7 19
-14 35 -6 17 -16 44 -22 60 -6 17 -15 39 -20 50 -5 11 -38 99 -74 195 -36 96
-70 184 -75 195 -5 11 -81 211 -170 445 -185 487 -199 522 -233 610 -14 36
-68 178 -120 315 -53 138 -101 264 -108 280 -7 17 -14 39 -16 49 -2 11 -7 24
-12 30 -4 6 -26 59 -47 118 -35 97 -41 108 -64 108 -155 4 -1231 4 -1280 0z"/>
<path d="M14104 10312 l-50 -3 0 -75 c0 -84 -6 -79 96 -89 47 -5 97 -14 135
-25 6 -1 17 -5 25 -7 91 -26 176 -118 197 -213 2 -8 6 -26 9 -40 3 -14 7 -722
9 -1575 3 -1659 3 -1634 -46 -1732 -27 -53 -51 -78 -107 -114 -53 -33 -188
-66 -283 -68 l-35 -1 0 -77 1 -78 978 -3 977 -2 0 80 0 80 -87 1 c-143 2 -193
9 -293 40 -63 20 -113 48 -138 79 -16 20 -64 110 -58 110 3 0 -1 15 -9 33 -11
27 -14 172 -15 801 l-1 768 93 -6 c51 -3 104 -8 118 -11 14 -3 41 -8 60 -11
19 -3 38 -8 42 -11 5 -2 18 -6 30 -8 44 -8 167 -78 210 -119 42 -40 98 -109
98 -121 0 -3 12 -24 27 -48 14 -23 25 -43 24 -45 -2 -1 4 -21 13 -42 9 -22 16
-41 15 -43 0 -1 9 -26 20 -54 11 -29 19 -53 17 -53 -2 0 2 -20 9 -45 8 -25 17
-64 20 -87 4 -24 10 -61 15 -83 5 -22 11 -62 15 -89 3 -28 8 -52 11 -55 3 -3
34 -6 69 -7 64 -1 65 -1 66 25 4 134 1 1990 -4 1998 -3 5 -34 9 -68 8 -70 -1
-71 -2 -85 -100 -4 -22 -10 -48 -15 -57 -6 -10 -8 -18 -5 -18 2 0 0 -17 -5
-37 -5 -21 -12 -48 -15 -61 -2 -12 -18 -64 -35 -115 -53 -160 -135 -302 -208
-362 -23 -19 -133 -83 -149 -86 -4 -1 -16 -5 -27 -9 -11 -4 -40 -11 -65 -15
-25 -4 -54 -9 -65 -12 -11 -2 -66 -7 -123 -10 l-102 -6 0 750 c1 485 5 764 11
789 33 123 118 158 379 157 365 -1 614 -56 790 -174 119 -79 209 -208 294
-418 14 -36 26 -72 26 -82 0 -10 4 -20 9 -23 8 -5 27 -81 20 -81 -1 0 3 -9 9
-21 6 -11 13 -34 16 -49 3 -16 11 -54 17 -84 6 -31 12 -63 14 -71 1 -11 18
-14 71 -15 l69 0 1 613 2 612 -47 0 c-253 3 -2948 4 -2987 2z"/>
<path d="M1689 9676 c-2 -2 -80 -21 -174 -41 -93 -20 -179 -38 -190 -41 -35
-8 -238 -43 -285 -48 -25 -3 -54 -7 -65 -10 -12 -2 -48 -7 -80 -11 -33 -4 -68
-9 -78 -11 -73 -13 -237 -23 -517 -30 -135 -4 -256 -7 -270 -8 l-25 -1 -2
-118 c-1 -85 1 -119 10 -122 7 -2 41 -6 77 -9 172 -16 267 -37 362 -80 59 -28
80 -48 104 -103 15 -38 21 -127 10 -170 -3 -13 -8 -33 -11 -45 -2 -12 -20 -79
-39 -148 -29 -104 -60 -222 -71 -265 -1 -5 -4 -17 -7 -25 -6 -16 -58 -214 -63
-239 -2 -9 -11 -42 -20 -75 -9 -32 -19 -66 -20 -75 -2 -9 -4 -16 -5 -16 -2 0
-5 -12 -13 -50 -3 -11 -10 -40 -17 -65 -7 -25 -14 -56 -17 -69 -2 -13 -8 -31
-12 -40 -5 -9 -14 -38 -20 -66 -6 -27 -22 -93 -36 -145 -50 -185 -136 -525
-140 -552 -2 -15 -8 -44 -14 -65 -5 -21 -12 -56 -15 -78 -3 -22 -8 -58 -11
-80 -41 -272 2 -464 133 -594 46 -46 154 -122 182 -127 3 0 13 -4 23 -7 40
-16 53 -20 72 -24 31 -7 216 -8 260 -1 104 16 261 87 372 169 83 62 220 204
304 316 120 160 438 649 428 657 -2 2 -51 37 -109 79 -58 42 -109 80 -115 85
-6 6 -18 -3 -32 -24 -13 -18 -23 -36 -23 -39 0 -13 -170 -278 -182 -283 -5 -2
-8 -10 -8 -17 0 -7 -4 -15 -8 -17 -4 -1 -30 -32 -57 -68 -54 -71 -130 -150
-167 -174 -28 -18 -88 -29 -105 -18 -6 4 -18 20 -26 35 -28 53 -1 238 74 522
16 61 32 118 34 128 2 10 7 27 10 37 3 10 8 28 10 39 3 12 7 30 10 41 3 11 7
29 10 40 8 31 13 49 35 130 16 58 77 284 94 345 1 6 5 19 9 30 3 11 8 31 11
45 3 14 10 41 15 60 5 19 24 87 41 150 17 63 38 140 46 170 15 54 23 86 27
105 2 6 6 16 11 23 4 7 5 16 2 19 -3 3 -1 13 4 23 5 9 11 28 14 41 2 13 21 83
41 154 20 72 38 137 40 145 1 8 8 35 15 60 7 25 14 55 16 68 3 13 11 42 18 65
12 36 21 68 32 112 2 12 38 142 65 242 37 133 44 174 28 159z"/>
</g>
</svg>
